<?xml version="1.0" encoding="utf-8"?>
<!-- Generator: Adobe Illustrator 19.1.0, SVG Export Plug-In . SVG Version: 6.00 Build 0)  -->
<svg version="1.2" baseProfile="tiny" id="Layer_1" xmlns="http://www.w3.org/2000/svg" xmlns:xlink="http://www.w3.org/1999/xlink"
	 x="0px" y="0px" viewBox="0 0 32 32" xml:space="preserve">
<g>
	<g>
		<g>
			<path fill="#2E70B8" d="M18.9,20L18,19.1c-0.1-0.1-0.2-0.1-0.2,0L17,20c-0.1,0.1-0.1,0.2,0,0.2l0.1,0.1c0.1,0.1,0.2,0.1,0.2,0
				l0.4-0.4v1.5c0,0.1,0.1,0.2,0.2,0.2c0.1,0,0.2-0.1,0.2-0.2v-1.5l0.4,0.4c0.1,0.1,0.2,0.1,0.2,0l0.1-0.1
				C18.9,20.1,18.9,20,18.9,20z"/>
			<path fill="#2E70B8" d="M21,20l-0.8-0.8c-0.1-0.1-0.2-0.1-0.2,0L19.1,20c-0.1,0.1-0.1,0.2,0,0.2l0.1,0.1c0.1,0.1,0.2,0.1,0.2,0
				l0.4-0.4v1.5c0,0.1,0.1,0.2,0.2,0.2c0.1,0,0.2-0.1,0.2-0.2v-1.5l0.4,0.4c0.1,0.1,0.2,0.1,0.2,0l0.1-0.1C21,20.1,21,20,21,20z"/>
		</g>
		<path fill="#2E70B8" d="M21.9,15.4H16c-0.4,0-0.8,0.4-0.8,0.8v5.7c0,0.4,0.4,0.8,0.8,0.8h5.9c0.4,0,0.8-0.4,0.8-0.8v-5.7
			C22.7,15.8,22.4,15.4,21.9,15.4z M18.4,16h1.1v1c0,0.1-0.1,0.3-0.3,0.3h-0.5c-0.1,0-0.3-0.1-0.3-0.3V16z M22.2,21.9
			c0,0.1-0.1,0.3-0.3,0.3H16c-0.1,0-0.3-0.1-0.3-0.3v-5.7c0-0.1,0.1-0.3,0.3-0.3h1.9v1c0,0.4,0.4,0.8,0.8,0.8h0.5
			c0.4,0,0.8-0.4,0.8-0.8v-1h1.9c0.1,0,0.3,0.1,0.3,0.3V21.9z"/>
	</g>
	<g>
		<path fill="#2E70B8" d="M13.9,14h-2c-0.4,0-0.8,0.4-0.8,0.8v2c0,0.4,0.4,0.8,0.8,0.8h2c0.4,0,0.8-0.4,0.8-0.8v-2
			C14.7,14.3,14.3,14,13.9,14z M14.1,14.8v0.7h-1v-1h0.7C14,14.5,14.1,14.6,14.1,14.8z M11.9,14.5h0.7v1h-1v-0.7
			C11.6,14.6,11.7,14.5,11.9,14.5z M11.6,16.8V16h1v1h-0.7C11.7,17,11.6,16.9,11.6,16.8z M13.9,17h-0.7v-1h1v0.7
			C14.1,16.9,14,17,13.9,17z"/>
		<path fill="#2E70B8" d="M19.6,12.6L15,9.5c-0.2-0.1-0.4-0.2-0.6-0.2c-0.2,0-0.5,0.1-0.6,0.2l-1.5,1.1v-0.5c0-0.4-0.4-0.8-0.8-0.8
			h-0.4c-0.4,0-0.8,0.4-0.8,0.8V12l-0.8,0.6c-0.3,0.2-0.3,0.4-0.3,0.5c0,0.1,0.1,0.3,0.5,0.3H10v6.2c0,0.4,0.4,0.8,0.8,0.8h3.9v-0.5
			h-3.9c-0.1,0-0.3-0.1-0.3-0.3v-6.2h8.1v1.5h0.5v-1.5h0.2c0.4,0,0.5-0.2,0.5-0.3C19.9,13,19.9,12.8,19.6,12.6z M10.9,10.1
			c0-0.1,0.1-0.3,0.3-0.3h0.4c0.1,0,0.3,0.1,0.3,0.3V11l-0.9,0.7V10.1z M14.1,9.9c0.2-0.1,0.5-0.1,0.6,0l4.3,3h-8.9L14.1,9.9z"/>
	</g>
</g>
</svg>
