<?xml version="1.0" encoding="utf-8"?>
<!-- Generator: Adobe Illustrator 19.1.0, SVG Export Plug-In . SVG Version: 6.00 Build 0)  -->
<svg version="1.2" baseProfile="tiny" id="Layer_1" xmlns="http://www.w3.org/2000/svg" xmlns:xlink="http://www.w3.org/1999/xlink"
	 x="0px" y="0px" viewBox="0 0 32 32" xml:space="preserve">
<g>
	<g>
		<path fill="#FFFFFF" d="M13.4,19.9l-1-1c-0.1-0.1-0.2-0.1-0.3,0l-1,1c-0.1,0.1-0.1,0.2,0,0.3l0.1,0.1c0.1,0.1,0.2,0.1,0.3,0
			l0.5-0.5v1.8c0,0.2,0.1,0.3,0.3,0.3c0.2,0,0.3-0.1,0.3-0.3v-1.8l0.5,0.5c0.1,0.1,0.2,0.1,0.3,0l0.1-0.1
			C13.5,20.1,13.5,19.9,13.4,19.9z"/>
		<path fill="#FFFFFF" d="M16,19.9l-1-1c-0.1-0.1-0.2-0.1-0.3,0l-1,1c-0.1,0.1-0.1,0.2,0,0.3l0.1,0.1c0.1,0.1,0.2,0.1,0.3,0l0.5-0.5
			v1.8c0,0.2,0.1,0.3,0.3,0.3c0.2,0,0.3-0.1,0.3-0.3v-1.8l0.5,0.5c0.1,0.1,0.2,0.1,0.3,0l0.1-0.1C16.1,20.1,16.1,19.9,16,19.9z"/>
	</g>
	<path fill="#FFFFFF" d="M23.8,9.9c-0.2,0-0.3,0.1-0.5,0.2l-1,0.8c-0.1,0.1-0.2,0.2-0.3,0.3c0,0,0,0,0,0c0.1-0.2,0.1-0.4,0-0.7
		l-0.4-1c-0.2-0.5-0.7-0.8-1.2-0.8h-8.7c-0.5,0-1.1,0.4-1.2,0.8l-0.4,1c-0.1,0.2-0.1,0.5,0,0.7c0,0,0,0,0,0
		c-0.1-0.1-0.2-0.2-0.3-0.3l-1-0.8C8.6,10,8.4,9.9,8.2,9.9c-0.3,0-0.6,0.2-0.6,0.7v2c0,0.5,0.3,1,0.6,1.3l1,0.8
		c0.1,0.1,0.1,0.1,0.2,0.1c0.1,0,0.1,0.1,0.2,0.1v7.3c0,0.6,0.4,1,1,1h10.6c0.6,0,1-0.4,1-1V15c0.1,0,0.1-0.1,0.2-0.1
		c0.1,0,0.2-0.1,0.2-0.1l1-0.8c0.4-0.3,0.6-0.9,0.6-1.3v-2C24.3,10.1,24,9.9,23.8,9.9z M22.5,13.4l-0.4,0.8
		c-0.1,0.1-0.2,0.2-0.4,0.3h0c0,0,0,0,0,0c-0.1,0-0.1,0-0.2,0h-11c-0.3,0-0.6-0.2-0.6-0.3l-0.4-0.8c0,0,0,0,0,0c0,0,0.1,0,0.1,0
		h12.8C22.5,13.4,22.5,13.4,22.5,13.4C22.5,13.4,22.5,13.4,22.5,13.4z M10.6,10.8l0.4-1c0.1-0.2,0.4-0.4,0.6-0.4h8.7
		c0.2,0,0.5,0.2,0.6,0.4l0.4,1c0,0.1,0,0.1,0,0.1c0,0-0.1,0-0.1,0H10.7c-0.1,0-0.1,0-0.1,0C10.6,10.9,10.6,10.8,10.6,10.8z
		 M10.4,12.2v-0.3c0-0.2,0.1-0.3,0.3-0.3h0h10.5h0c0.2,0,0.3,0.1,0.3,0.3v0.3v0.5H10.4V12.2z M8.3,12.6v-2l1,0.8
		c0.2,0.2,0.4,0.6,0.4,0.8v0.5H9.6c-0.3,0-0.6,0.1-0.7,0.3c-0.1,0.1-0.1,0.3-0.1,0.4l-0.1,0C8.5,13.3,8.3,12.9,8.3,12.6z M21.6,22.3
		c0,0.2-0.1,0.3-0.3,0.3H10.7c-0.2,0-0.3-0.1-0.3-0.3v-7c0.1,0,0.1,0,0.2,0h11c0.1,0,0.1,0,0.2,0V22.3z M23.7,12.6
		c0,0.3-0.2,0.7-0.4,0.8l-0.1,0c0-0.2,0-0.3-0.1-0.4c-0.1-0.2-0.4-0.3-0.7-0.3h-0.1v-0.5c0-0.3,0.2-0.7,0.4-0.8l1-0.8V12.6z"/>
</g>
</svg>
