<?xml version="1.0" encoding="utf-8"?>
<!-- Generator: Adobe Illustrator 19.1.0, SVG Export Plug-In . SVG Version: 6.00 Build 0)  -->
<!DOCTYPE svg PUBLIC "-//W3C//DTD SVG 1.0//EN" "http://www.w3.org/TR/2001/REC-SVG-20010904/DTD/svg10.dtd">
<svg version="1.0" id="Layer_1" xmlns="http://www.w3.org/2000/svg" xmlns:xlink="http://www.w3.org/1999/xlink" x="0px" y="0px"
	 viewBox="0 0 32 32" enable-background="new 0 0 32 32" xml:space="preserve">
<path id="plus-5-icon" fill="#FFFFFF" d="M18.6,16.8h-1.9v1.9h-1.4v-1.9h-1.9v-1.4h1.9v-1.9h1.4v1.9h1.9V16.8z M21,16
	c0,2.8-2.2,5-5,5s-5-2.2-5-5s2.2-5,5-5S21,13.2,21,16z M20,16c0-2.2-1.8-4-4-4c-2.2,0-4,1.8-4,4c0,2.2,1.8,4,4,4
	C18.2,20,20,18.2,20,16z"/>
</svg>
