<?xml version="1.0" encoding="utf-8"?>
<!-- Generator: Adobe Illustrator 19.1.0, SVG Export Plug-In . SVG Version: 6.00 Build 0)  -->
<!DOCTYPE svg PUBLIC "-//W3C//DTD SVG 1.0//EN" "http://www.w3.org/TR/2001/REC-SVG-20010904/DTD/svg10.dtd">
<svg version="1.0" id="Layer_1" xmlns="http://www.w3.org/2000/svg" xmlns:xlink="http://www.w3.org/1999/xlink" x="0px" y="0px"
	 viewBox="0 0 32 32" enable-background="new 0 0 32 32" xml:space="preserve">
<g>
	<path fill="#1E252B" d="M20.2,14.6h-8.3v-1.3c0-0.1,0.1-0.2,0.2-0.2h1.1v0.4c0,0.3,0.2,0.5,0.5,0.5h0.2c0.3,0,0.5-0.2,0.5-0.5v-0.4
		h3.1v0.4c0,0.3,0.2,0.5,0.5,0.5h0.2c0.3,0,0.5-0.2,0.5-0.5v-0.4H20c0.1,0,0.2,0.1,0.2,0.2V14.6L20.2,14.6z M20.2,20
		c0,0.1-0.1,0.2-0.2,0.2h-8c-0.1,0-0.2-0.1-0.2-0.2v-5h8.3V20L20.2,20z M13.5,12c0-0.1,0.1-0.2,0.2-0.2h0.2c0.1,0,0.2,0.1,0.2,0.2
		v1.5c0,0.1-0.1,0.2-0.2,0.2h-0.2c-0.1,0-0.2-0.1-0.2-0.2V12L13.5,12z M17.9,12c0-0.1,0.1-0.2,0.2-0.2h0.2c0.1,0,0.2,0.1,0.2,0.2
		v1.5c0,0.1-0.1,0.2-0.2,0.2h-0.2c-0.1,0-0.2-0.1-0.2-0.2V12L17.9,12z M20,12.8h-1.1V12c0-0.3-0.2-0.5-0.5-0.5h-0.2
		c-0.3,0-0.5,0.2-0.5,0.5v0.8h-3.1V12c0-0.3-0.2-0.5-0.5-0.5h-0.2c-0.3,0-0.5,0.2-0.5,0.5v0.8H12c-0.3,0-0.5,0.2-0.5,0.5V20
		c0,0.3,0.2,0.5,0.5,0.5h8c0.3,0,0.5-0.2,0.5-0.5v-6.6C20.5,13.1,20.3,12.8,20,12.8L20,12.8z"/>
	<path fill="#1E252B" d="M14.9,16.1c0,0.2-0.2,0.4-0.4,0.4l0,0c-0.2,0-0.4-0.2-0.4-0.4l0,0c0-0.2,0.2-0.4,0.4-0.4l0,0
		C14.7,15.7,14.9,15.9,14.9,16.1L14.9,16.1L14.9,16.1z"/>
	<path fill="#1E252B" d="M16.4,16.1c0,0.2-0.2,0.4-0.4,0.4l0,0c-0.2,0-0.4-0.2-0.4-0.4l0,0c0-0.2,0.2-0.4,0.4-0.4l0,0
		C16.2,15.7,16.4,15.9,16.4,16.1L16.4,16.1L16.4,16.1z"/>
	<path fill="#1E252B" d="M17.9,16.1c0,0.2-0.2,0.4-0.4,0.4l0,0c-0.2,0-0.4-0.2-0.4-0.4l0,0c0-0.2,0.2-0.4,0.4-0.4l0,0
		C17.7,15.7,17.9,15.9,17.9,16.1L17.9,16.1L17.9,16.1z"/>
	<path fill="#1E252B" d="M19.3,16.1c0,0.2-0.2,0.4-0.4,0.4l0,0c-0.2,0-0.4-0.2-0.4-0.4l0,0c0-0.2,0.2-0.4,0.4-0.4l0,0
		C19.2,15.7,19.3,15.9,19.3,16.1L19.3,16.1L19.3,16.1z"/>
	<path fill="#1E252B" d="M13.4,17.4c0,0.2-0.2,0.4-0.4,0.4l0,0c-0.2,0-0.4-0.2-0.4-0.4l0,0c0-0.2,0.2-0.4,0.4-0.4l0,0
		C13.2,17,13.4,17.2,13.4,17.4L13.4,17.4L13.4,17.4z"/>
	<path fill="#1E252B" d="M14.9,17.4c0,0.2-0.2,0.4-0.4,0.4l0,0c-0.2,0-0.4-0.2-0.4-0.4l0,0c0-0.2,0.2-0.4,0.4-0.4l0,0
		C14.7,17,14.9,17.2,14.9,17.4L14.9,17.4L14.9,17.4z"/>
	<path fill="#1E252B" d="M16.4,17.4c0,0.2-0.2,0.4-0.4,0.4l0,0c-0.2,0-0.4-0.2-0.4-0.4l0,0c0-0.2,0.2-0.4,0.4-0.4l0,0
		C16.2,17,16.4,17.2,16.4,17.4L16.4,17.4L16.4,17.4z"/>
	<path fill="#1E252B" d="M17.9,17.4c0,0.2-0.2,0.4-0.4,0.4l0,0c-0.2,0-0.4-0.2-0.4-0.4l0,0c0-0.2,0.2-0.4,0.4-0.4l0,0
		C17.7,17,17.9,17.2,17.9,17.4L17.9,17.4L17.9,17.4z"/>
	<path fill="#1E252B" d="M19.3,17.4c0,0.2-0.2,0.4-0.4,0.4l0,0c-0.2,0-0.4-0.2-0.4-0.4l0,0c0-0.2,0.2-0.4,0.4-0.4l0,0
		C19.2,17,19.3,17.2,19.3,17.4L19.3,17.4L19.3,17.4z"/>
	<path fill="#1E252B" d="M13.4,18.6c0,0.2-0.2,0.4-0.4,0.4l0,0c-0.2,0-0.4-0.2-0.4-0.4l0,0c0-0.2,0.2-0.4,0.4-0.4l0,0
		C13.2,18.2,13.4,18.4,13.4,18.6L13.4,18.6L13.4,18.6z"/>
	<path fill="#1E252B" d="M14.9,18.6c0,0.2-0.2,0.4-0.4,0.4l0,0c-0.2,0-0.4-0.2-0.4-0.4l0,0c0-0.2,0.2-0.4,0.4-0.4l0,0
		C14.7,18.2,14.9,18.4,14.9,18.6L14.9,18.6L14.9,18.6z"/>
	<path fill="#1E252B" d="M16.4,18.6c0,0.2-0.2,0.4-0.4,0.4l0,0c-0.2,0-0.4-0.2-0.4-0.4l0,0c0-0.2,0.2-0.4,0.4-0.4l0,0
		C16.2,18.2,16.4,18.4,16.4,18.6L16.4,18.6L16.4,18.6z"/>
	<path fill="#1E252B" d="M17.9,18.6c0,0.2-0.2,0.4-0.4,0.4l0,0c-0.2,0-0.4-0.2-0.4-0.4l0,0c0-0.2,0.2-0.4,0.4-0.4l0,0
		C17.7,18.2,17.9,18.4,17.9,18.6L17.9,18.6L17.9,18.6z"/>
	<path fill="#1E252B" d="M19.3,18.6c0,0.2-0.2,0.4-0.4,0.4l0,0c-0.2,0-0.4-0.2-0.4-0.4l0,0c0-0.2,0.2-0.4,0.4-0.4l0,0
		C19.2,18.2,19.3,18.4,19.3,18.6L19.3,18.6L19.3,18.6z"/>
</g>
</svg>
