<?xml version="1.0" encoding="utf-8"?>
<!-- Generator: Adobe Illustrator 16.0.0, SVG Export Plug-In . SVG Version: 6.00 Build 0)  -->
<!DOCTYPE svg PUBLIC "-//W3C//DTD SVG 1.1//EN" "http://www.w3.org/Graphics/SVG/1.1/DTD/svg11.dtd">
<svg version="1.1" id="Слой_1" xmlns="http://www.w3.org/2000/svg" xmlns:xlink="http://www.w3.org/1999/xlink" x="0px" y="0px"
	 width="36px" height="36px" viewBox="0 0 36 36" enable-background="new 0 0 36 36" xml:space="preserve">
<g display="none">
	<g enable-background="new    ">
		<g display="inline">
			<defs>
				<rect id="SVGID_1_" x="228.7" y="125.185" width="19.5" height="19.5"/>
			</defs>
			<clipPath id="SVGID_2_">
				<use xlink:href="#SVGID_1_"  overflow="visible"/>
			</clipPath>
			<g clip-path="url(#SVGID_2_)">
				<defs>
					<rect id="SVGID_3_" x="232.45" y="128.934" width="12" height="12.001"/>
				</defs>
				<clipPath id="SVGID_4_">
					<use xlink:href="#SVGID_3_"  overflow="visible"/>
				</clipPath>
				<g opacity="0.54" clip-path="url(#SVGID_4_)" enable-background="new    ">
					<g>
						<defs>
							<rect id="SVGID_5_" x="228.7" y="125.185" width="19.5" height="19.5"/>
						</defs>
						<clipPath id="SVGID_6_">
							<use xlink:href="#SVGID_5_"  overflow="visible"/>
						</clipPath>
						<g clip-path="url(#SVGID_6_)">
							<defs>
								<polygon id="SVGID_7_" points="237.399,129.984 241.599,134.185 232.45,134.185 232.45,135.684 241.599,135.684 
									237.399,139.885 238.448,140.935 244.45,134.935 238.448,128.934 								"/>
							</defs>
							<clipPath id="SVGID_8_">
								<use xlink:href="#SVGID_7_"  overflow="visible"/>
							</clipPath>
							<g opacity="0.5" clip-path="url(#SVGID_8_)">
								<g>
									<defs>
										<rect id="SVGID_9_" x="228.7" y="125.185" width="19.5" height="19.5"/>
									</defs>
									<clipPath id="SVGID_10_">
										<use xlink:href="#SVGID_9_"  overflow="visible"/>
									</clipPath>
									<rect x="228.7" y="125.185" clip-path="url(#SVGID_10_)" fill="#0D0F0F" width="19.5" height="19.5"/>
								</g>
							</g>
						</g>
					</g>
				</g>
			</g>
		</g>
	</g>
	<g display="inline" opacity="0.2">
		<g>
			<defs>
				<rect id="SVGID_11_" x="-0.004" y="1.001" width="35.001" height="35"/>
			</defs>
			<clipPath id="SVGID_12_">
				<use xlink:href="#SVGID_11_"  overflow="visible"/>
			</clipPath>
			<path clip-path="url(#SVGID_12_)" fill="#0D0F0F" d="M30.442,28.845l-2.15-2.149c-0.158-0.158-0.416-0.158-0.574,0l-2.148,2.149
				c-0.158,0.158-0.158,0.416,0,0.574l0.285,0.286c0.158,0.156,0.416,0.156,0.574,0l0.967-0.969v3.861
				c0,0.335,0.273,0.607,0.609,0.607s0.609-0.272,0.609-0.607v-3.861l0.967,0.969c0.158,0.156,0.416,0.156,0.574,0l0.287-0.286
				C30.599,29.261,30.599,29.003,30.442,28.845"/>
			<path clip-path="url(#SVGID_12_)" fill="#0D0F0F" d="M9.425,28.845l-2.149-2.149c-0.158-0.158-0.416-0.158-0.574,0l-2.149,2.149
				c-0.158,0.158-0.158,0.416,0,0.574l0.287,0.286c0.157,0.156,0.415,0.156,0.573,0l0.968-0.969v3.861
				c0,0.335,0.272,0.607,0.608,0.607s0.608-0.272,0.608-0.607v-3.861l0.968,0.969c0.157,0.156,0.416,0.156,0.573,0l0.287-0.286
				C9.583,29.261,9.583,29.003,9.425,28.845"/>
			<path clip-path="url(#SVGID_12_)" fill="#0D0F0F" d="M14.922,28.845l-2.149-2.149c-0.157-0.158-0.416-0.158-0.573,0l-2.15,2.149
				c-0.158,0.158-0.158,0.416,0,0.574l0.287,0.286c0.157,0.156,0.416,0.156,0.574,0l0.967-0.969v3.861
				c0,0.335,0.273,0.607,0.609,0.607c0.335,0,0.607-0.272,0.607-0.607v-3.861l0.969,0.969c0.158,0.156,0.416,0.156,0.572,0
				l0.287-0.286C15.08,29.261,15.08,29.003,14.922,28.845"/>
			<path clip-path="url(#SVGID_12_)" fill="#0D0F0F" d="M24.944,28.845l-2.15-2.149c-0.158-0.158-0.416-0.158-0.574,0l-1.342,1.342
				v1.703c0.018-0.014,0.039-0.021,0.053-0.035l0.969-0.969v3.861c0,0.335,0.273,0.607,0.607,0.607c0.336,0,0.609-0.272,0.609-0.607
				v-3.861l0.967,0.969c0.158,0.156,0.418,0.156,0.574,0l0.287-0.286C25.103,29.261,25.103,29.003,24.944,28.845"/>
			<path clip-path="url(#SVGID_12_)" fill="#0D0F0F" d="M26.636,21.014c0,0.387-0.313,0.7-0.699,0.7h-1.363
				c-0.385,0-0.699-0.313-0.699-0.7V18.4h2.762V21.014z M32.897,17H20.173c0.307,0.407,0.529,0.882,0.635,1.399h1.666v2.614
				c0,1.159,0.943,2.1,2.1,2.1h1.363c1.158,0,2.1-0.94,2.1-2.1V18.4h4.861c0.385,0,0.699,0.315,0.699,0.701v14.802
				c0,0.385-0.314,0.699-0.699,0.699h-12.09c-0.105,0.518-0.328,0.992-0.635,1.4h12.725c1.158,0,2.1-0.942,2.1-2.1V19.101
				C34.997,17.943,34.056,17,32.897,17"/>
			<path clip-path="url(#SVGID_12_)" fill="#0D0F0F" d="M13.365,13.705c0.158,0.158,0.415,0.158,0.573,0l0.969-0.968v2.864h1.216
				v-2.864l0.969,0.968c0.158,0.158,0.414,0.158,0.572,0l0.287-0.286c0.157-0.158,0.157-0.416,0-0.574l-2.15-2.149
				c-0.157-0.158-0.414-0.158-0.572,0l-2.15,2.149c-0.156,0.158-0.156,0.416,0,0.574L13.365,13.705z"/>
			<path clip-path="url(#SVGID_12_)" fill="#0D0F0F" d="M7.867,13.705c0.158,0.158,0.416,0.158,0.574,0l0.968-0.968v2.864h1.216
				v-2.864l0.969,0.968c0.158,0.158,0.416,0.158,0.573,0l0.286-0.286c0.158-0.158,0.158-0.416,0-0.574l-2.148-2.149
				c-0.158-0.158-0.416-0.158-0.574,0l-2.15,2.149c-0.156,0.158-0.156,0.416,0,0.574L7.867,13.705z"/>
			<path clip-path="url(#SVGID_12_)" fill="#0D0F0F" d="M11.385,2.401h2.762v2.613c0,0.386-0.314,0.7-0.701,0.7h-1.36
				c-0.387,0-0.7-0.314-0.7-0.7V2.401z M4.425,15.601v-12.5c0-0.387,0.314-0.7,0.7-0.7h4.859v2.613c0,1.158,0.943,2.1,2.101,2.1
				h1.36c1.158,0,2.101-0.942,2.101-2.1V2.401h4.861c0.387,0,0.699,0.313,0.699,0.7v12.5h1.4v-12.5c0-1.158-0.941-2.1-2.1-2.1H5.125
				c-1.157,0-2.1,0.942-2.1,2.1v12.5H4.425z"/>
			<path clip-path="url(#SVGID_12_)" fill="#0D0F0F" d="M18.079,33.902c0,0.385-0.315,0.699-0.701,0.699H2.097
				c-0.387,0-0.7-0.314-0.7-0.699V19.101c0-0.385,0.313-0.701,0.7-0.701h4.858v2.614c0,1.159,0.943,2.1,2.1,2.1h1.361
				c1.158,0,2.101-0.94,2.101-2.1V18.4h4.861c0.386,0,0.701,0.315,0.701,0.701V33.902z M8.354,18.4h2.763v2.614
				c0,0.387-0.314,0.7-0.701,0.7H9.055c-0.385,0-0.7-0.313-0.7-0.7V18.4z M17.378,17H2.097c-1.159,0-2.1,0.942-2.1,2.1v14.802
				c0,1.157,0.941,2.1,2.1,2.1h15.281c1.158,0,2.1-0.942,2.1-2.1V19.101C19.478,17.943,18.536,17,17.378,17"/>
		</g>
	</g>
	<path display="inline" fill="#FFFFFF" d="M30.442,27.845l-2.15-2.149c-0.158-0.158-0.416-0.158-0.574,0l-2.148,2.149
		c-0.158,0.158-0.158,0.416,0,0.574l0.285,0.286c0.158,0.156,0.416,0.156,0.574,0l0.967-0.969v3.861
		c0,0.335,0.273,0.607,0.609,0.607s0.609-0.272,0.609-0.607v-3.861l0.967,0.969c0.158,0.156,0.416,0.156,0.574,0l0.287-0.286
		C30.599,28.261,30.599,28.003,30.442,27.845"/>
	<path display="inline" fill="#FFFFFF" d="M9.425,27.845l-2.149-2.149c-0.158-0.158-0.416-0.158-0.574,0l-2.149,2.149
		c-0.158,0.158-0.158,0.416,0,0.574l0.287,0.286c0.157,0.156,0.415,0.156,0.573,0l0.968-0.969v3.861
		c0,0.335,0.272,0.607,0.608,0.607s0.608-0.272,0.608-0.607v-3.861l0.968,0.969c0.157,0.156,0.416,0.156,0.573,0l0.287-0.286
		C9.583,28.261,9.583,28.003,9.425,27.845"/>
	<path display="inline" fill="#FFFFFF" d="M14.922,27.845l-2.149-2.149c-0.157-0.158-0.416-0.158-0.573,0l-2.15,2.149
		c-0.158,0.158-0.158,0.416,0,0.574l0.287,0.286c0.157,0.156,0.416,0.156,0.574,0l0.967-0.969v3.861
		c0,0.335,0.273,0.607,0.609,0.607c0.335,0,0.607-0.272,0.607-0.607v-3.861l0.969,0.969c0.158,0.156,0.416,0.156,0.572,0
		l0.287-0.286C15.08,28.261,15.08,28.003,14.922,27.845"/>
	<path display="inline" fill="#FFFFFF" d="M24.944,27.845l-2.15-2.149c-0.158-0.158-0.416-0.158-0.574,0l-1.342,1.342v1.703
		c0.018-0.014,0.039-0.021,0.053-0.035l0.969-0.969v3.861c0,0.335,0.273,0.607,0.607,0.607c0.336,0,0.609-0.272,0.609-0.607v-3.861
		l0.967,0.969c0.158,0.156,0.418,0.156,0.574,0l0.287-0.286C25.103,28.261,25.103,28.003,24.944,27.845"/>
	<path display="inline" fill="#FFFFFF" d="M26.636,20.014c0,0.387-0.313,0.7-0.699,0.7h-1.363c-0.385,0-0.699-0.313-0.699-0.7V17.4
		h2.762V20.014z M32.897,16H20.173c0.307,0.407,0.529,0.882,0.635,1.399h1.666v2.614c0,1.159,0.943,2.1,2.1,2.1h1.363
		c1.158,0,2.1-0.94,2.1-2.1V17.4h4.861c0.385,0,0.699,0.315,0.699,0.7v14.802c0,0.385-0.314,0.699-0.699,0.699h-12.09
		c-0.105,0.518-0.328,0.992-0.635,1.4h12.725c1.158,0,2.1-0.942,2.1-2.1V18.1C34.997,16.943,34.056,16,32.897,16"/>
	<path display="inline" fill="#FFFFFF" d="M13.365,12.705c0.158,0.158,0.415,0.158,0.573,0l0.969-0.968v2.865h1.216v-2.865
		l0.969,0.968c0.158,0.158,0.414,0.158,0.572,0l0.287-0.286c0.157-0.158,0.157-0.416,0-0.574l-2.15-2.149
		c-0.157-0.158-0.414-0.158-0.572,0l-2.15,2.149c-0.156,0.158-0.156,0.416,0,0.574L13.365,12.705z"/>
	<path display="inline" fill="#FFFFFF" d="M7.867,12.705c0.158,0.158,0.416,0.158,0.574,0l0.968-0.968v2.865h1.216v-2.865
		l0.969,0.968c0.158,0.158,0.416,0.158,0.573,0l0.286-0.286c0.158-0.158,0.158-0.416,0-0.574l-2.148-2.149
		c-0.158-0.158-0.416-0.158-0.574,0l-2.15,2.149c-0.156,0.158-0.156,0.416,0,0.574L7.867,12.705z"/>
	<path display="inline" fill="#FFFFFF" d="M11.385,1.401h2.762v2.613c0,0.386-0.314,0.7-0.701,0.7h-1.36c-0.387,0-0.7-0.314-0.7-0.7
		V1.401z M4.425,14.601v-12.5c0-0.387,0.314-0.7,0.7-0.7h4.859v2.613c0,1.158,0.943,2.1,2.101,2.1h1.36
		c1.158,0,2.101-0.942,2.101-2.1V1.401h4.861c0.387,0,0.699,0.313,0.699,0.7v12.5h1.4v-12.5c0-1.158-0.941-2.1-2.1-2.1H5.125
		c-1.157,0-2.1,0.942-2.1,2.1v12.5H4.425z"/>
	<path display="inline" fill="#FFFFFF" d="M18.079,32.902c0,0.385-0.315,0.699-0.701,0.699H2.097c-0.387,0-0.7-0.314-0.7-0.699V18.1
		c0-0.385,0.313-0.7,0.7-0.7h4.858v2.614c0,1.159,0.943,2.1,2.1,2.1h1.361c1.158,0,2.101-0.94,2.101-2.1V17.4h4.861
		c0.386,0,0.701,0.315,0.701,0.7V32.902z M8.354,17.4h2.763v2.614c0,0.387-0.314,0.7-0.701,0.7H9.055c-0.385,0-0.7-0.313-0.7-0.7
		V17.4z M17.378,16H2.097c-1.159,0-2.1,0.942-2.1,2.1v14.802c0,1.157,0.941,2.1,2.1,2.1h15.281c1.158,0,2.1-0.942,2.1-2.1V18.1
		C19.478,16.943,18.536,16,17.378,16"/>
</g>
<g display="none" opacity="0.2">
	<g>
		<defs>
			<rect id="SVGID_13_" x="8.616" y="235.798" width="105.423" height="17.079"/>
		</defs>
		<clipPath id="SVGID_14_" display="inline">
			<use xlink:href="#SVGID_13_"  overflow="visible"/>
		</clipPath>
		<g display="inline" clip-path="url(#SVGID_14_)">
			<text transform="matrix(1 0 0 1 8.6162 249.3418)"><tspan x="0" y="0" fill="#0D0F0F" font-family="'Ubuntu-Bold'" font-size="16">A</tspan><tspan x="9.616" y="0" fill="#0D0F0F" font-family="'Ubuntu-Bold'" font-size="16">dd</tspan><tspan x="27.664" y="0" fill="#0D0F0F" font-family="'Ubuntu-Bold'" font-size="16">r</tspan><tspan x="32.752" y="0" fill="#0D0F0F" font-family="'Ubuntu-Bold'" font-size="16">ess Book</tspan></text>
		</g>
	</g>
</g>
<rect x="-6.098" y="168.277" display="none" fill-rule="evenodd" clip-rule="evenodd" fill="#DA7143" width="269" height="135.192"/>
<rect x="-161.098" y="-295.65" display="none" fill="none" width="1024" height="663.3"/>
<g display="none">
	<g display="inline" opacity="0.2">
		<g>
			<defs>
				<rect id="SVGID_15_" x="0.503" y="3.074" width="35" height="31.851"/>
			</defs>
			<clipPath id="SVGID_16_">
				<use xlink:href="#SVGID_15_"  overflow="visible"/>
			</clipPath>
			<path clip-path="url(#SVGID_16_)" fill="#0D0F0F" d="M33.404,15.805H27.57v-1.569c0-1.158-0.941-2.1-2.1-2.1h-6.534
				c-1.157,0-2.1,0.942-2.1,2.1v1.569h-5.834c-1.158,0-2.101,0.942-2.101,2.101v3.941c0,0.729,0.373,1.418,0.935,1.865v9.113
				c0,1.158,0.942,2.1,2.1,2.1h20.534c1.158,0,2.1-0.941,2.1-2.1v-9.113c0.562-0.447,0.934-1.137,0.934-1.865v-3.941
				C35.504,16.748,34.562,15.805,33.404,15.805 M18.237,14.236c0-0.386,0.314-0.7,0.7-0.7h6.534c0.387,0,0.7,0.314,0.7,0.7v1.569
				h-7.934V14.236z M10.303,17.906c0-0.386,0.314-0.7,0.7-0.7h22.401c0.385,0,0.699,0.314,0.699,0.7v3.941
				c0,0.436-0.375,0.887-0.804,0.967l-9.847,1.822c-0.642,0.117-1.856,0.117-2.498,0l-9.847-1.822
				c-0.429-0.08-0.805-0.531-0.805-0.967V17.906z M32.471,33.524H11.937c-0.386,0-0.7-0.314-0.7-0.699v-8.564l9.462,1.75
				c0.408,0.076,0.941,0.117,1.504,0.117c0.563,0,1.099-0.041,1.504-0.117l9.464-1.75v8.564
				C33.171,33.21,32.857,33.524,32.471,33.524"/>
			<path clip-path="url(#SVGID_16_)" fill="#0D0F0F" d="M8.438,24.872H5.403c-0.386,0-0.699-0.314-0.699-0.699v-9.062
				c0-0.205,0.052-0.451,0.13-0.7h4.907c1.158,0,2.1-0.942,2.1-2.1V7.405c0.249-0.079,0.495-0.13,0.7-0.13h6.162
				c0.387,0,0.702,0.314,0.702,0.7v2.761h1.399V7.975c0-1.158-0.942-2.1-2.101-2.1h-0.699v-0.7c0-1.158-0.942-2.1-2.101-2.1H2.604
				c-1.158,0-2.101,0.942-2.101,2.1v16.197c0,1.158,0.942,2.1,2.101,2.1h0.699v0.701c0,1.158,0.941,2.1,2.1,2.1h3.035V24.872z
				 M10.44,12.311c0,0.386-0.313,0.7-0.699,0.7H5.694l4.746-4.746V12.311z M3.303,15.111v6.96H2.604
				c-0.387,0-0.701-0.313-0.701-0.699V5.175c0-0.386,0.314-0.7,0.701-0.7h13.299c0.387,0,0.701,0.314,0.701,0.7v0.7h-4.063
				c-0.945,0-2.154,0.495-2.843,1.158C9.682,7.046,9.669,7.055,9.655,7.069l-5.156,5.157C3.817,12.907,3.303,14.147,3.303,15.111"/>
		</g>
	</g>
	<path display="inline" fill="#FFFFFF" d="M33.404,14.805H27.57v-1.569c0-1.158-0.941-2.1-2.1-2.1h-6.534
		c-1.157,0-2.1,0.942-2.1,2.1v1.569h-5.834c-1.158,0-2.101,0.942-2.101,2.101v3.941c0,0.729,0.373,1.418,0.935,1.865v9.113
		c0,1.158,0.942,2.1,2.1,2.1h20.534c1.158,0,2.1-0.941,2.1-2.1v-9.113c0.562-0.447,0.934-1.137,0.934-1.865v-3.941
		C35.504,15.748,34.562,14.805,33.404,14.805 M18.237,13.236c0-0.386,0.314-0.7,0.7-0.7h6.534c0.387,0,0.7,0.314,0.7,0.7v1.569
		h-7.934V13.236z M10.303,16.906c0-0.386,0.314-0.7,0.7-0.7h22.401c0.385,0,0.699,0.314,0.699,0.7v3.941
		c0,0.436-0.375,0.887-0.804,0.967l-9.847,1.822c-0.642,0.117-1.856,0.117-2.498,0l-9.847-1.822
		c-0.429-0.08-0.805-0.531-0.805-0.967V16.906z M32.471,32.524H11.937c-0.386,0-0.7-0.314-0.7-0.699v-8.564l9.462,1.75
		c0.408,0.076,0.941,0.117,1.504,0.117c0.563,0,1.099-0.041,1.504-0.117l9.464-1.75v8.564C33.171,32.21,32.857,32.524,32.471,32.524
		"/>
	<path display="inline" fill="#FFFFFF" d="M8.438,23.872H5.403c-0.386,0-0.699-0.314-0.699-0.699v-9.062
		c0-0.205,0.052-0.451,0.13-0.7h4.907c1.158,0,2.1-0.942,2.1-2.1V6.405c0.249-0.079,0.495-0.13,0.7-0.13h6.162
		c0.387,0,0.702,0.314,0.702,0.7v2.761h1.399V6.975c0-1.158-0.942-2.1-2.101-2.1h-0.699v-0.7c0-1.158-0.942-2.1-2.101-2.1H2.604
		c-1.158,0-2.101,0.942-2.101,2.1v16.197c0,1.158,0.942,2.1,2.101,2.1h0.699v0.701c0,1.158,0.941,2.1,2.1,2.1h3.035V23.872z
		 M10.44,11.311c0,0.386-0.313,0.7-0.699,0.7H5.694l4.746-4.746V11.311z M3.303,14.111v6.96H2.604c-0.387,0-0.701-0.313-0.701-0.699
		V4.175c0-0.386,0.314-0.7,0.701-0.7h13.299c0.387,0,0.701,0.314,0.701,0.7v0.7h-4.063c-0.945,0-2.154,0.495-2.843,1.158
		C9.682,6.046,9.669,6.055,9.655,6.069l-5.156,5.157C3.817,11.907,3.303,13.147,3.303,14.111"/>
	<path display="inline" fill="#FFFFFF" d="M33.404,13.806H27.57v-1.57c0-1.158-0.941-2.1-2.1-2.1h-6.534c-1.157,0-2.1,0.942-2.1,2.1
		v1.57h-5.834c-1.158,0-2.101,0.942-2.101,2.1v3.941c0,0.729,0.373,1.418,0.935,1.865v9.113c0,1.158,0.942,2.1,2.1,2.1h20.534
		c1.158,0,2.1-0.941,2.1-2.1v-9.113c0.562-0.447,0.934-1.137,0.934-1.865v-3.941C35.504,14.748,34.562,13.806,33.404,13.806
		 M18.237,12.236c0-0.386,0.314-0.7,0.7-0.7h6.534c0.387,0,0.7,0.314,0.7,0.7v1.57h-7.934V12.236z M10.303,15.906
		c0-0.386,0.314-0.7,0.7-0.7h22.401c0.385,0,0.699,0.314,0.699,0.7v3.941c0,0.436-0.375,0.887-0.804,0.967l-9.847,1.822
		c-0.642,0.117-1.856,0.117-2.498,0l-9.847-1.822c-0.429-0.08-0.805-0.531-0.805-0.967V15.906z M32.471,31.524H11.937
		c-0.386,0-0.7-0.314-0.7-0.699v-8.564l9.462,1.75c0.408,0.076,0.941,0.117,1.504,0.117c0.563,0,1.099-0.041,1.504-0.117l9.464-1.75
		v8.564C33.171,31.21,32.857,31.524,32.471,31.524"/>
	<path display="inline" fill="#FFFFFF" d="M8.438,22.872H5.403c-0.386,0-0.699-0.314-0.699-0.699v-9.062
		c0-0.205,0.052-0.451,0.13-0.7h4.907c1.158,0,2.1-0.942,2.1-2.1V5.405c0.249-0.079,0.495-0.13,0.7-0.13h6.162
		c0.387,0,0.702,0.314,0.702,0.7v2.761h1.399V5.975c0-1.158-0.942-2.1-2.101-2.1h-0.699v-0.7c0-1.158-0.942-2.1-2.101-2.1H2.604
		c-1.158,0-2.101,0.942-2.101,2.1v16.197c0,1.158,0.942,2.1,2.101,2.1h0.699v0.701c0,1.158,0.941,2.1,2.1,2.1h3.035V22.872z
		 M10.44,10.311c0,0.386-0.313,0.7-0.699,0.7H5.694l4.746-4.746V10.311z M3.303,13.111v6.96H2.604c-0.387,0-0.701-0.313-0.701-0.699
		V3.175c0-0.386,0.314-0.7,0.701-0.7h13.299c0.387,0,0.701,0.314,0.701,0.7v0.7h-4.063c-0.945,0-2.154,0.495-2.843,1.158
		C9.682,5.046,9.669,5.055,9.655,5.069l-5.156,5.157C3.817,10.907,3.303,12.147,3.303,13.111"/>
</g>
<g display="none">
	<defs>
		<rect id="SVGID_17_" x="-144.717" y="-308.369" width="1024" height="663.3"/>
	</defs>
	<defs>
		<rect id="SVGID_18_" x="-438.416" y="-310.387" width="1024" height="663.299"/>
	</defs>
	<defs>
		<rect id="SVGID_19_" x="-728.038" y="-309.654" width="1024" height="663.3"/>
	</defs>
	<defs>
		<rect id="SVGID_20_" x="24.002" y="-191.697" width="35" height="24.131"/>
	</defs>
	<clipPath id="SVGID_21_" display="inline">
		<use xlink:href="#SVGID_17_"  overflow="visible"/>
	</clipPath>
	<clipPath id="SVGID_22_" display="inline" clip-path="url(#SVGID_21_)">
		<use xlink:href="#SVGID_18_"  display="none" overflow="visible"/>
	</clipPath>
	<clipPath id="SVGID_23_" display="inline" clip-path="url(#SVGID_22_)">
		<use xlink:href="#SVGID_19_"  display="none" overflow="visible"/>
	</clipPath>
	<clipPath id="SVGID_24_" display="inline" clip-path="url(#SVGID_23_)">
		<use xlink:href="#SVGID_20_"  overflow="visible"/>
	</clipPath>
	<g opacity="0.2" clip-path="url(#SVGID_24_)">
		<g display="inline">
			<defs>
				<rect id="SVGID_25_" x="25.004" y="-148.622" width="77.84" height="17.08"/>
			</defs>
			<clipPath id="SVGID_26_">
				<use xlink:href="#SVGID_25_"  overflow="visible"/>
			</clipPath>
			<g clip-path="url(#SVGID_26_)">
				<text transform="matrix(1 0 0 1 25.0049 -135.0776)"><tspan x="0" y="0" fill="#0D0F0F" font-family="'Ubuntu-Bold'" font-size="16">P</tspan><tspan x="8.192" y="0" fill="#0D0F0F" font-family="'Ubuntu-Bold'" font-size="16">ac</tspan><tspan x="23.072" y="0" fill="#0D0F0F" font-family="'Ubuntu-Bold'" font-size="16">k</tspan><tspan x="30.432" y="0" fill="#0D0F0F" font-family="'Ubuntu-Bold'" font-size="16">aging</tspan></text>
			</g>
		</g>
	</g>
</g>
<g display="none" opacity="0.2">
	<g display="inline">
		<defs>
			<rect id="SVGID_27_" x="2.999" y="4" width="30" height="30"/>
		</defs>
		<clipPath id="SVGID_28_">
			<use xlink:href="#SVGID_27_"  overflow="visible"/>
		</clipPath>
		<path clip-path="url(#SVGID_28_)" fill="#0D0F0F" d="M13.466,19.435c-0.33,0-0.6,0.269-0.6,0.601v1.133c0,0.33,0.27,0.6,0.6,0.6
			h9.067c0.331,0,0.6-0.27,0.6-0.6v-1.133c0-0.332-0.269-0.601-0.6-0.601H13.466z M22.533,22.967h-9.067
			c-0.992,0-1.8-0.807-1.8-1.799v-1.133c0-0.994,0.808-1.801,1.8-1.801h9.067c0.993,0,1.8,0.807,1.8,1.801v1.133
			C24.333,22.16,23.526,22.967,22.533,22.967"/>
		<rect x="16.857" y="11.396" clip-path="url(#SVGID_28_)" fill="#0D0F0F" width="2.342" height="1.199"/>
		<path clip-path="url(#SVGID_28_)" fill="#0D0F0F" d="M31.199,32.801H4.8c-0.331,0-0.601-0.27-0.601-0.601V12.485
			c0.188,0.067,0.389,0.11,0.601,0.11h8.45v-1.201H4.8c-0.331,0-0.601-0.269-0.601-0.6V5.801C4.199,5.469,4.469,5.2,4.8,5.2h9.649
			v9.2c0,0.992,0.808,1.8,1.801,1.8h3.5c0.992,0,1.8-0.808,1.8-1.8V5.2h9.649c0.331,0,0.601,0.269,0.601,0.601v4.994
			c0,0.331-0.27,0.6-0.601,0.6H22.75v1.201h8.449c0.212,0,0.411-0.043,0.601-0.11V32.2C31.8,32.531,31.53,32.801,31.199,32.801
			 M15.649,5.2h4.7v9.2c0,0.33-0.269,0.6-0.6,0.6h-3.5c-0.331,0-0.601-0.27-0.601-0.6V5.2z M31.199,4H4.8C3.807,4,3,4.807,3,5.801
			V10v0.795V32.2C3,33.193,3.807,34,4.8,34h26.399C32.192,34,33,33.193,33,32.2V10.795V10V5.801C33,4.807,32.192,4,31.199,4"/>
		<path clip-path="url(#SVGID_28_)" fill="#0D0F0F" d="M10.153,27.488l-2.121-2.12c-0.155-0.156-0.409-0.156-0.565,0l-2.121,2.12
			c-0.156,0.156-0.156,0.41,0,0.566l0.283,0.283c0.155,0.155,0.41,0.155,0.564,0l0.956-0.956v3.81c0,0.332,0.269,0.601,0.601,0.601
			c0.331,0,0.6-0.269,0.6-0.601v-3.81l0.955,0.956c0.156,0.155,0.411,0.155,0.566,0l0.282-0.283
			C10.31,27.898,10.31,27.645,10.153,27.488"/>
		<path clip-path="url(#SVGID_28_)" fill="#0D0F0F" d="M15.854,27.488l-2.121-2.12c-0.155-0.156-0.41-0.156-0.565,0l-2.121,2.12
			c-0.156,0.156-0.156,0.41,0,0.566l0.282,0.283c0.155,0.155,0.41,0.155,0.565,0l0.956-0.956v3.81c0,0.332,0.269,0.601,0.6,0.601
			s0.601-0.269,0.601-0.601v-3.81l0.955,0.956c0.156,0.155,0.411,0.155,0.565,0l0.283-0.283
			C16.009,27.898,16.009,27.645,15.854,27.488"/>
	</g>
</g>
<rect x="16.857" y="10.396" display="none" fill="#FFFFFF" width="2.342" height="1.199"/>
<path display="none" fill="#FFFFFF" d="M31.199,31.801H4.8c-0.331,0-0.601-0.27-0.601-0.601V11.485
	c0.188,0.067,0.389,0.11,0.601,0.11h8.45v-1.201H4.8c-0.331,0-0.601-0.269-0.601-0.6V4.801C4.199,4.469,4.469,4.2,4.8,4.2h9.649v9.2
	c0,0.992,0.808,1.8,1.801,1.8h3.5c0.992,0,1.8-0.808,1.8-1.8V4.2h9.649c0.331,0,0.601,0.269,0.601,0.601v4.994
	c0,0.331-0.27,0.6-0.601,0.6H22.75v1.201h8.449c0.212,0,0.411-0.043,0.601-0.11V31.2C31.8,31.531,31.53,31.801,31.199,31.801
	 M15.649,4.2h4.7v9.2c0,0.33-0.269,0.6-0.6,0.6h-3.5c-0.331,0-0.601-0.27-0.601-0.6V4.2z M31.199,3H4.8C3.807,3,3,3.807,3,4.801V9
	v0.795V31.2C3,32.193,3.807,33,4.8,33h26.399C32.192,33,33,32.193,33,31.2V9.795V9V4.801C33,3.807,32.192,3,31.199,3"/>
<path display="none" fill="#FFFFFF" d="M13.466,18.435c-0.33,0-0.6,0.269-0.6,0.601v1.133c0,0.33,0.27,0.6,0.6,0.6h9.067
	c0.331,0,0.6-0.27,0.6-0.6v-1.133c0-0.332-0.269-0.601-0.6-0.601H13.466z M22.533,21.967h-9.067c-0.992,0-1.8-0.807-1.8-1.799
	v-1.133c0-0.994,0.808-1.801,1.8-1.801h9.067c0.993,0,1.8,0.807,1.8,1.801v1.133C24.333,21.16,23.526,21.967,22.533,21.967"/>
<path display="none" fill="#FFFFFF" d="M15.854,26.488l-2.121-2.12c-0.155-0.156-0.41-0.156-0.565,0l-2.121,2.12
	c-0.156,0.156-0.156,0.41,0,0.566l0.282,0.283c0.155,0.155,0.41,0.155,0.565,0l0.956-0.956v3.81c0,0.332,0.269,0.601,0.6,0.601
	s0.601-0.269,0.601-0.601v-3.81l0.955,0.956c0.156,0.155,0.411,0.155,0.565,0l0.283-0.283
	C16.009,26.898,16.009,26.645,15.854,26.488"/>
<path display="none" fill="#FFFFFF" d="M10.153,26.488l-2.121-2.12c-0.155-0.156-0.409-0.156-0.565,0l-2.121,2.12
	c-0.156,0.156-0.156,0.41,0,0.566l0.283,0.283c0.155,0.155,0.41,0.155,0.564,0l0.956-0.956v3.81c0,0.332,0.269,0.601,0.601,0.601
	c0.331,0,0.6-0.269,0.6-0.601v-3.81l0.955,0.956c0.156,0.155,0.411,0.155,0.566,0l0.282-0.283
	C10.31,26.898,10.31,26.645,10.153,26.488"/>
<g display="none" opacity="0.2">
	<g display="inline">
		<path fill="#0D0F0F" d="M34.099,28.333c0,0.388-0.313,0.7-0.699,0.7h-2.566V17c0-1.158-0.943-2.1-2.102-2.1h-6.475
			c-1.157,0-2.1,0.941-2.1,2.1v12.033h-4.315V17c0-1.158-0.943-2.1-2.1-2.1H7.266c-1.158,0-2.1,0.941-2.1,2.1v12.033H2.6
			c-0.387,0-0.699-0.313-0.699-0.7V13.885c0-0.47,0.406-1.037,0.851-1.191L16.9,7.851c0.279-0.094,0.68-0.148,1.1-0.148
			s0.819,0.054,1.098,0.148l14.149,4.842c0.445,0.154,0.852,0.722,0.852,1.191V28.333z M29.433,29.033h-7.875V27.52h7.875V29.033z
			 M29.433,26.119h-7.875v-1.4h7.875V26.119z M29.433,23.318h-7.875v-1.399h7.875V23.318z M29.433,20.52h-7.875v-1.4h7.875V20.52z
			 M29.433,17.719h-7.875V17c0-0.387,0.314-0.699,0.699-0.699h6.475c0.387,0,0.701,0.313,0.701,0.699V17.719z M14.441,29.033H6.566
			V27.52h7.875V29.033z M14.441,26.119H6.566v-1.4h7.875V26.119z M14.441,23.318H6.566v-1.399h7.875V23.318z M14.441,20.52H6.566
			v-1.4h7.875V20.52z M14.441,17.719H6.566V17c0-0.387,0.313-0.699,0.699-0.699h6.477c0.385,0,0.699,0.313,0.699,0.699V17.719z
			 M33.7,11.37L19.55,6.527C19.126,6.382,18.575,6.303,18,6.303c-0.577,0-1.128,0.079-1.553,0.224L2.298,11.37
			C1.289,11.715,0.5,12.818,0.5,13.885v14.448c0,1.159,0.941,2.101,2.1,2.101h30.8c1.158,0,2.1-0.941,2.1-2.101V13.885
			C35.499,12.818,34.71,11.715,33.7,11.37"/>
	</g>
</g>
<path display="none" fill="#FFFFFF" d="M34.099,27.333c0,0.388-0.313,0.7-0.699,0.7h-2.566V16c0-1.158-0.943-2.1-2.102-2.1h-6.475
	c-1.157,0-2.1,0.941-2.1,2.1v12.033h-4.315V16c0-1.158-0.943-2.1-2.1-2.1H7.266c-1.158,0-2.1,0.941-2.1,2.1v12.033H2.6
	c-0.387,0-0.699-0.313-0.699-0.7V12.885c0-0.47,0.406-1.037,0.851-1.191L16.9,6.851c0.279-0.094,0.68-0.148,1.1-0.148
	s0.819,0.054,1.098,0.148l14.149,4.842c0.445,0.154,0.852,0.722,0.852,1.191V27.333z M29.433,28.033h-7.875V26.52h7.875V28.033z
	 M29.433,25.119h-7.875v-1.4h7.875V25.119z M29.433,22.318h-7.875v-1.399h7.875V22.318z M29.433,19.52h-7.875v-1.4h7.875V19.52z
	 M29.433,16.719h-7.875V16c0-0.387,0.314-0.699,0.699-0.699h6.475c0.387,0,0.701,0.313,0.701,0.699V16.719z M14.441,28.033H6.566
	V26.52h7.875V28.033z M14.441,25.119H6.566v-1.4h7.875V25.119z M14.441,22.318H6.566v-1.399h7.875V22.318z M14.441,19.52H6.566v-1.4
	h7.875V19.52z M14.441,16.719H6.566V16c0-0.387,0.313-0.699,0.699-0.699h6.477c0.385,0,0.699,0.313,0.699,0.699V16.719z M33.7,10.37
	L19.55,5.527C19.126,5.382,18.575,5.303,18,5.303c-0.577,0-1.128,0.079-1.553,0.224L2.298,10.37C1.289,10.715,0.5,11.818,0.5,12.885
	v14.448c0,1.159,0.941,2.101,2.1,2.101h30.8c1.158,0,2.1-0.941,2.1-2.101V12.885C35.499,11.818,34.71,10.715,33.7,10.37"/>
<g display="none">
	<defs>
		<rect id="SVGID_29_" x="-462" y="-295.65" width="1024" height="663.3"/>
	</defs>
	<clipPath id="SVGID_30_" display="inline">
		<use xlink:href="#SVGID_29_"  overflow="visible"/>
	</clipPath>
	<g display="inline" opacity="0.2" clip-path="url(#SVGID_30_)">
		<g>
			<defs>
				<rect id="SVGID_31_" x="0.504" y="1.001" width="35" height="34.999"/>
			</defs>
			<clipPath id="SVGID_32_">
				<use xlink:href="#SVGID_31_"  overflow="visible"/>
			</clipPath>
			<path clip-path="url(#SVGID_32_)" fill="#0D0F0F" d="M0.504,36c0.403-0.037,0.782-0.188,1.079-0.449l1.773-1.553
				c0.167-0.146,0.463-0.129,0.615,0.033l1.095,1.174c0.332,0.355,0.775,0.551,1.248,0.551c0.484,0,0.951-0.215,1.28-0.588
				l1.326-1.506c0.067-0.078,0.156-0.119,0.249-0.119c0.061,0,0.152,0.018,0.237,0.105l1.035,1.053
				c0.647,0.658,1.831,0.764,2.579,0.23l2.506-1.785c0.216-0.154,0.655-0.133,0.856,0.045l2.432,2.143
				c0.665,0.584,1.841,0.691,2.595,0.23l2.789-1.705c0.258-0.158,0.8-0.137,1.046,0.045l0.641,0.471
				c0.709,0.521,1.893,0.527,2.605,0.01l0.672-0.482c0.247-0.18,0.788-0.199,1.046-0.039l1.595,0.992
				c0.75,0.465,1.928,0.369,2.596-0.209l0.813-0.705c0.072-0.063,0.179-0.098,0.292-0.119v-1.416
				c-0.455,0.033-0.882,0.195-1.209,0.477l-0.813,0.705c-0.215,0.186-0.704,0.225-0.941,0.078l-1.594-0.992
				c-0.73-0.455-1.907-0.412-2.605,0.094l-0.67,0.482c-0.23,0.166-0.729,0.164-0.957-0.002l-0.642-0.471
				c-0.7-0.514-1.865-0.564-2.604-0.113l-2.789,1.705c-0.24,0.146-0.726,0.102-0.939-0.086l-2.432-2.141
				c-0.672-0.594-1.865-0.656-2.595-0.137l-2.506,1.785c-0.203,0.146-0.589,0.109-0.767-0.072l-1.036-1.053
				c-0.332-0.338-0.77-0.523-1.235-0.523c-0.494,0-0.968,0.217-1.3,0.594l-1.326,1.506c-0.082,0.094-0.17,0.113-0.229,0.113
				c-0.058,0-0.143-0.018-0.224-0.105l-1.095-1.174c-0.346-0.371-0.838-0.582-1.352-0.582c-0.447,0-0.877,0.16-1.209,0.451
				l-1.773,1.553c-0.044,0.039-0.098,0.068-0.157,0.086V36z"/>
			<path clip-path="url(#SVGID_32_)" fill="#0D0F0F" d="M27.027,18.373l-1.877-0.926V11.89c0-1.158-0.942-2.1-2.101-2.1h-0.146
				V7.301c0-1.158-0.942-2.1-2.101-2.1h-2.1v-3.5c0-0.386-0.313-0.7-0.7-0.7c-0.386,0-0.7,0.314-0.7,0.7v3.5h-2.1
				c-1.158,0-2.1,0.942-2.1,2.1V9.79h-0.146c-1.158,0-2.1,0.942-2.1,2.1v5.557l-1.895,0.935c-0.954,0.507-1.503,1.718-1.261,2.771
				l1.533,9.594c0.528,0.01,1.034,0.154,1.483,0.412L9.081,20.906L9.068,20.85c-0.107-0.436,0.156-1.021,0.532-1.223l7.448-3.673
				c0.075-0.036,0.162-0.066,0.255-0.092v14.666c0.345,0.141,0.662,0.328,0.931,0.564l0.47,0.414V15.862
				c0.092,0.025,0.178,0.054,0.251,0.089l7.436,3.668c0.394,0.209,0.655,0.795,0.549,1.229l-1.629,10.16
				c0.487,0.076,0.94,0.248,1.338,0.486l1.658-10.342C28.549,20.1,28,18.889,27.027,18.373 M14.038,15.879l-1.78,0.878V11.89
				c0-0.386,0.314-0.7,0.7-0.7h1.08V15.879z M17.303,14.441c-0.317,0.051-0.616,0.133-0.868,0.255l-0.998,0.492V11.19h1.866V14.441z
				 M20.57,15.187l-1-0.494c-0.25-0.12-0.549-0.202-0.867-0.252V11.19h1.867V15.187z M21.504,9.79h-7V7.301
				c0-0.386,0.314-0.7,0.7-0.7h5.6c0.386,0,0.7,0.314,0.7,0.7V9.79z M23.75,16.756l-1.779-0.878V11.19h1.079
				c0.386,0,0.7,0.314,0.7,0.7V16.756z"/>
		</g>
	</g>
	<path display="inline" clip-path="url(#SVGID_30_)" fill="#FFFFFF" d="M0.274,35.58c0.403-0.037,0.782-0.188,1.079-0.449
		l1.773-1.553c0.167-0.146,0.463-0.129,0.615,0.033l1.095,1.174c0.332,0.355,0.775,0.551,1.248,0.551
		c0.484,0,0.951-0.215,1.28-0.588l1.326-1.506c0.067-0.078,0.156-0.119,0.249-0.119c0.061,0,0.152,0.018,0.237,0.105l1.035,1.053
		c0.647,0.658,1.831,0.764,2.579,0.23l2.506-1.785c0.216-0.154,0.655-0.133,0.856,0.045l2.432,2.143
		c0.664,0.584,1.841,0.691,2.595,0.23l2.789-1.705c0.258-0.158,0.8-0.137,1.046,0.045l0.641,0.471
		c0.709,0.521,1.893,0.527,2.605,0.01l0.672-0.482c0.247-0.18,0.788-0.199,1.046-0.039l1.595,0.992
		c0.75,0.465,1.928,0.369,2.596-0.209l0.813-0.705c0.072-0.063,0.179-0.098,0.292-0.119v-1.416
		c-0.455,0.033-0.882,0.195-1.209,0.477l-0.813,0.705c-0.215,0.186-0.704,0.225-0.941,0.078l-1.594-0.992
		c-0.73-0.455-1.907-0.412-2.605,0.094l-0.67,0.482c-0.23,0.166-0.729,0.164-0.957-0.002l-0.642-0.471
		c-0.7-0.514-1.865-0.564-2.604-0.113l-2.789,1.705c-0.24,0.146-0.726,0.102-0.939-0.086l-2.432-2.141
		c-0.672-0.594-1.865-0.656-2.595-0.137l-2.506,1.785c-0.203,0.146-0.589,0.109-0.767-0.072l-1.036-1.053
		c-0.332-0.338-0.77-0.523-1.235-0.523c-0.494,0-0.968,0.217-1.3,0.594l-1.326,1.506c-0.082,0.094-0.17,0.113-0.229,0.113
		c-0.058,0-0.143-0.018-0.224-0.105l-1.095-1.174c-0.346-0.371-0.838-0.582-1.352-0.582c-0.447,0-0.877,0.16-1.209,0.451
		l-1.773,1.553c-0.044,0.039-0.098,0.068-0.157,0.086V35.58z"/>
	<path display="inline" clip-path="url(#SVGID_30_)" fill="#FFFFFF" d="M26.797,17.953l-1.877-0.926V11.47
		c0-1.158-0.942-2.1-2.101-2.1h-0.146V6.881c0-1.158-0.942-2.1-2.101-2.1h-2.1v-3.5c0-0.386-0.313-0.7-0.7-0.7
		c-0.386,0-0.7,0.314-0.7,0.7v3.5h-2.1c-1.158,0-2.1,0.942-2.1,2.1V9.37h-0.146c-1.158,0-2.1,0.942-2.1,2.1v5.557l-1.895,0.935
		c-0.954,0.507-1.503,1.718-1.261,2.771l1.533,9.594c0.528,0.01,1.034,0.154,1.483,0.412L8.851,20.486L8.838,20.43
		c-0.107-0.436,0.156-1.021,0.532-1.222l7.448-3.674c0.075-0.036,0.162-0.066,0.255-0.092v14.666
		c0.345,0.141,0.662,0.328,0.931,0.564l0.47,0.414V15.442c0.092,0.025,0.178,0.054,0.251,0.089l7.436,3.668
		c0.394,0.209,0.655,0.795,0.549,1.229l-1.629,10.16c0.487,0.076,0.94,0.248,1.338,0.486l1.658-10.342
		C28.318,19.68,27.77,18.469,26.797,17.953 M13.808,15.459l-1.78,0.878V11.47c0-0.386,0.314-0.7,0.7-0.7h1.08V15.459z
		 M17.073,14.021c-0.317,0.051-0.616,0.133-0.868,0.255l-0.998,0.492V10.77h1.866V14.021z M20.34,14.767l-1-0.494
		c-0.25-0.12-0.549-0.202-0.866-0.252V10.77h1.866V14.767z M21.273,9.37h-7V6.881c0-0.386,0.314-0.7,0.7-0.7h5.6
		c0.386,0,0.7,0.314,0.7,0.7V9.37z M23.52,16.336l-1.779-0.878V10.77h1.079c0.386,0,0.7,0.314,0.7,0.7V16.336z"/>
</g>
<g>
	<defs>
		<rect id="SVGID_33_" x="-754.735" y="-298.65" width="1024" height="663.3"/>
	</defs>
	<clipPath id="SVGID_34_">
		<use xlink:href="#SVGID_33_"  overflow="visible"/>
	</clipPath>
	<g opacity="0.2" clip-path="url(#SVGID_34_)">
		<g>
			<defs>
				<rect id="SVGID_35_" x="20.385" y="9.752" width="7.739" height="15.082"/>
			</defs>
			<clipPath id="SVGID_36_">
				<use xlink:href="#SVGID_35_"  overflow="visible"/>
			</clipPath>
			<path clip-path="url(#SVGID_36_)" fill="#0D0F0F" d="M27.894,18.349c-0.154-0.394-0.376-0.737-0.661-1.022
				c-0.286-0.285-0.658-0.53-1.107-0.729c-0.202-0.087-0.569-0.2-1.125-0.344V12.44c0.353,0.101,0.629,0.225,0.717,0.323
				c0.165,0.185,0.284,0.453,0.389,0.715c0.189,0.479,0.579,0.516,0.692,0.516c0.063,0,0.136-0.004,0.193-0.027
				c0.101-0.026,0.47-0.14,0.631-0.439c0.088-0.165,0.099-0.35,0.03-0.535c-0.214-0.577-0.529-1.034-0.964-1.395
				c-0.428-0.358-0.996-0.595-1.688-0.704V10.53c0-0.429-0.349-0.778-0.776-0.778c-0.43,0-0.778,0.352-0.778,0.784v0.368
				c-0.774,0.123-1.379,0.373-1.801,0.744c-0.741,0.648-1.102,1.471-1.102,2.516c0,0.58,0.126,1.106,0.376,1.563
				c0.256,0.465,0.607,0.819,1.078,1.082c0.484,0.271,0.971,0.473,1.448,0.602v4.232c-0.324-0.09-0.761-0.262-1.007-0.566
				c-0.187-0.229-0.331-0.556-0.442-0.994c-0.078-0.308-0.37-0.678-0.946-0.575c-0.296,0.052-0.454,0.211-0.536,0.334
				c-0.169,0.256-0.129,0.522-0.112,0.6c0.099,0.444,0.258,0.841,0.473,1.181c0.331,0.521,0.73,0.903,1.186,1.137
				c0.367,0.189,0.833,0.334,1.386,0.43v0.869c0,0.43,0.349,0.777,0.778,0.777c0.428,0,0.776-0.348,0.776-0.777v-0.854
				c0.875-0.104,1.583-0.449,2.161-1.057c0.648-0.681,0.962-1.505,0.962-2.521C28.123,19.17,28.046,18.74,27.894,18.349
				 M26.52,19.721c0,0.604-0.175,1.102-0.521,1.479c-0.231,0.254-0.671,0.408-0.998,0.492v-3.875
				c0.564,0.213,0.941,0.443,1.151,0.699C26.396,18.816,26.52,19.222,26.52,19.721 M23.445,12.438v3.414
				c-0.429-0.17-0.74-0.375-0.945-0.622c-0.261-0.314-0.393-0.71-0.393-1.178c0-0.493,0.153-0.904,0.455-1.221
				C22.776,12.605,23.158,12.494,23.445,12.438"/>
		</g>
	</g>
	<path clip-path="url(#SVGID_34_)" fill="#FFFFFF" d="M27.894,17.349c-0.154-0.394-0.376-0.737-0.661-1.022
		c-0.286-0.285-0.658-0.53-1.107-0.729c-0.202-0.087-0.569-0.2-1.125-0.344V11.44c0.353,0.101,0.629,0.225,0.717,0.323
		c0.165,0.185,0.284,0.453,0.389,0.715c0.189,0.479,0.579,0.516,0.692,0.516c0.063,0,0.136-0.004,0.193-0.027
		c0.101-0.026,0.47-0.14,0.631-0.439c0.088-0.165,0.099-0.35,0.03-0.535c-0.214-0.577-0.529-1.034-0.964-1.395
		c-0.428-0.358-0.996-0.595-1.688-0.704V9.53c0-0.429-0.349-0.778-0.776-0.778c-0.43,0-0.778,0.352-0.778,0.784v0.368
		c-0.774,0.123-1.379,0.373-1.801,0.744c-0.741,0.648-1.102,1.471-1.102,2.516c0,0.58,0.126,1.106,0.376,1.563
		c0.256,0.465,0.607,0.819,1.078,1.082c0.484,0.271,0.971,0.473,1.448,0.602v4.232c-0.324-0.09-0.761-0.262-1.007-0.566
		c-0.187-0.229-0.331-0.556-0.442-0.994c-0.078-0.308-0.37-0.678-0.946-0.575c-0.296,0.052-0.454,0.211-0.536,0.334
		c-0.169,0.256-0.129,0.522-0.112,0.6c0.099,0.444,0.258,0.841,0.473,1.181c0.331,0.521,0.73,0.903,1.186,1.137
		c0.367,0.189,0.833,0.334,1.386,0.43v0.869c0,0.43,0.349,0.777,0.778,0.777c0.428,0,0.776-0.348,0.776-0.777v-0.854
		c0.875-0.104,1.583-0.449,2.161-1.057c0.648-0.681,0.962-1.505,0.962-2.521C28.123,18.17,28.046,17.74,27.894,17.349 M26.52,18.721
		c0,0.604-0.175,1.102-0.521,1.479c-0.231,0.254-0.671,0.408-0.998,0.492v-3.875c0.564,0.213,0.941,0.443,1.151,0.699
		C26.396,17.816,26.52,18.222,26.52,18.721 M23.445,11.438v3.414c-0.429-0.17-0.74-0.375-0.945-0.622
		c-0.261-0.314-0.393-0.71-0.393-1.178c0-0.493,0.153-0.904,0.455-1.221C22.776,11.605,23.158,11.494,23.445,11.438"/>
	<g opacity="0.2" clip-path="url(#SVGID_34_)">
		<g>
			<defs>
				<rect id="SVGID_37_" x="0.497" y="6.24" width="35" height="22.106"/>
			</defs>
			<clipPath id="SVGID_38_">
				<use xlink:href="#SVGID_37_"  overflow="visible"/>
			</clipPath>
			<path clip-path="url(#SVGID_38_)" fill="#0D0F0F" d="M24.444,6.241c-3.262,0-6.19,1.429-8.215,3.684H3.26
				c-1.524,0-2.763,1.24-2.763,2.764c0,0.71,0.275,1.352,0.718,1.842c-0.442,0.49-0.718,1.131-0.718,1.842
				c0,0.71,0.276,1.352,0.718,1.842c-0.441,0.49-0.718,1.132-0.718,1.842c0,0.711,0.275,1.353,0.718,1.842
				c-0.442,0.49-0.718,1.133-0.718,1.842c0,1.524,1.238,2.764,2.763,2.764h15.088c1.75,1.162,3.844,1.842,6.096,1.842
				c6.095,0,11.054-4.958,11.054-11.053C35.498,11.199,30.539,6.241,24.444,6.241 M3.26,11.767h11.627
				c-0.339,0.583-0.622,1.199-0.851,1.842H3.26H3.259c-0.507,0-0.92-0.413-0.92-0.92C2.339,12.181,2.752,11.767,3.26,11.767
				 M3.259,15.452L3.259,15.452h10.299c-0.102,0.6-0.167,1.213-0.167,1.841v0.001H3.26H3.259c-0.507-0.001-0.92-0.414-0.92-0.921
				C2.339,15.865,2.752,15.452,3.259,15.452 M3.259,19.136L3.259,19.136h10.299c0.107,0.634,0.268,1.249,0.479,1.843H3.26H3.259
				c-0.507-0.002-0.92-0.414-0.92-0.922S2.752,19.136,3.259,19.136 M2.339,23.74c0-0.508,0.413-0.92,0.92-0.92H3.26h11.627
				c0.384,0.66,0.834,1.275,1.342,1.842H3.26C2.752,24.662,2.339,24.249,2.339,23.74 M24.444,26.504
				c-5.079,0-9.211-4.132-9.211-9.211c0-5.078,4.132-9.21,9.211-9.21s9.211,4.132,9.211,9.21
				C33.655,22.372,29.523,26.504,24.444,26.504"/>
		</g>
	</g>
	<path clip-path="url(#SVGID_34_)" fill="#FFFFFF" d="M24.254,5.241c-3.262,0-6.189,1.429-8.215,3.684H3.07
		c-1.524,0-2.763,1.24-2.763,2.764c0,0.71,0.275,1.352,0.718,1.842c-0.442,0.49-0.718,1.131-0.718,1.842
		c0,0.71,0.276,1.352,0.718,1.842c-0.441,0.49-0.718,1.132-0.718,1.842c0,0.711,0.275,1.353,0.718,1.842
		c-0.442,0.49-0.718,1.133-0.718,1.842c0,1.525,1.238,2.764,2.763,2.764h15.088c1.749,1.162,3.844,1.842,6.096,1.842
		c6.095,0,11.054-4.958,11.054-11.053C35.308,10.199,30.349,5.241,24.254,5.241 M3.07,10.767h11.627
		c-0.339,0.583-0.622,1.199-0.851,1.842H3.07H3.069c-0.507,0-0.92-0.413-0.92-0.92C2.149,11.181,2.563,10.767,3.07,10.767
		 M3.069,14.452L3.069,14.452h10.299c-0.102,0.6-0.167,1.213-0.167,1.841v0.001H3.07H3.069c-0.507-0.001-0.92-0.414-0.92-0.921
		C2.149,14.865,2.563,14.452,3.069,14.452 M3.069,18.136L3.069,18.136h10.299c0.107,0.634,0.268,1.249,0.479,1.843H3.07H3.069
		c-0.507-0.002-0.92-0.414-0.92-0.922S2.563,18.136,3.069,18.136 M2.149,22.74c0-0.508,0.413-0.92,0.92-0.92H3.07h11.627
		c0.384,0.66,0.834,1.275,1.342,1.842H3.07C2.563,23.662,2.149,23.249,2.149,22.74 M24.254,25.504c-5.079,0-9.211-4.132-9.211-9.211
		c0-5.078,4.132-9.21,9.211-9.21s9.211,4.132,9.211,9.21C33.465,21.372,29.333,25.504,24.254,25.504"/>
</g>
</svg>
